FinalProject2_NCollin_607
…
upperWhiskerAge <- boxplot.stats(titanic_full$Age)$stats[5]
outlier_filtered_Age <- titanic_full[(!(is.na(titanic_full$Age))),] 
outlier_filtered_Age <-  outlier_filtered_Age %>% filter(Age < upperWhiskerAge)

outlier_filtered_Age

## # A tibble: 1,036 x 13
##    PassengerId Survived Pclass Name   Sex     Age SibSp Parch Ticket  Fare Cabin
##          <dbl>    <dbl>  <dbl> <chr>  <chr> <dbl> <dbl> <dbl> <chr>  <dbl> <chr>
##  1           1        0      3 Braun~ male     22     1     0 A/5 2~  7.25 <NA> 
##  2           2        1      1 Cumin~ fema~    38     1     0 PC 17~ 71.3  C85  
##  3           3        1      3 Heikk~ fema~    26     0     0 STON/~  7.92 <NA> 
##  4           4        1      1 Futre~ fema~    35     1     0 113803 53.1  C123 
##  5           5        0      3 Allen~ male     35     0     0 373450  8.05 <NA> 
##  6           7        0      1 McCar~ male     54     0     0 17463  51.9  E46  
##  7           8        0      3 Palss~ male      2     3     1 349909 21.1  <NA> 
##  8           9        1      3 Johns~ fema~    27     0     2 347742 11.1  <NA> 
##  9          10        1      2 Nasse~ fema~    14     1     0 237736 30.1  <NA> 
## 10          11        1      3 Sands~ fema~     4     1     1 PP 95~ 16.7  G6   
## # ... with 1,026 more rows, and 2 more variables: Embarked <chr>,
## #   IsTrainSet <lgl>
…
https://cran.r-project.org/web/packages/fixerapi/vignettes/introduction.html The Fare column is in British Pounds (https://betterprogramming.pub/titanic-survival-prediction-using-machine-learning-4c5ff1e3fa16) So Well Convert Modern Dollars to British Pounds

#install.packages("fixerapi")
library(fixerapi)

FixerAPIKey <- "c9da32e36f7357bf6017d34bd349906b"
#The following line didn't work...:
#fixer_api_key(FixerAPIKey)

Sys.setenv(FIXER_API_KEY = FixerAPIKey)

print(fixer_symbols())

## # A tibble: 168 x 2
##    name  value                        
##    <chr> <chr>                        
##  1 AED   United Arab Emirates Dirham  
##  2 AFN   Afghan Afghani               
##  3 ALL   Albanian Lek                 
##  4 AMD   Armenian Dram                
##  5 ANG   Netherlands Antillean Guilder
##  6 AOA   Angolan Kwanza               
##  7 ARS   Argentine Peso               
##  8 AUD   Australian Dollar            
##  9 AWG   Aruban Florin                
## 10 AZN   Azerbaijani Manat            
## # ... with 158 more rows
…
